EESchema Schematic File Version 5
LIBS:quadVCO-cache
EELAYER 29 0
EELAYER END
$Descr A4 11693 8268
encoding utf-8
Sheet 1 1
Title ""
Date ""
Rev ""
Comp ""
Comment1 ""
Comment2 ""
Comment3 ""
Comment4 ""
$EndDescr
$Comp
L Amplifier_Operational:LM13700 U1
U 1 1 5D3BC401
P 2700 2550
F 0 "U1" H 2700 2725 50  0000 C CNN
F 1 "LM13700" H 2700 2325 50  0000 C CNN
F 2 "Package_SO:SOIC-16_3.9x9.9mm_P1.27mm" H 2400 2575 50  0001 C CNN
F 3 "http://www.ti.com/lit/ds/symlink/lm13700.pdf" H 2400 2575 50  0001 C CNN
	1    2700 2550
	1    0    0    -1  
$EndComp
$Comp
L Amplifier_Operational:LM13700 U1
U 3 1 5D3BD845
P 2700 4300
F 0 "U1" H 2700 4100 50  0000 C CNN
F 1 "LM13700" H 2700 4550 50  0000 C CNN
F 2 "Package_SO:SOIC-16_3.9x9.9mm_P1.27mm" H 2400 4325 50  0001 C CNN
F 3 "http://www.ti.com/lit/ds/symlink/lm13700.pdf" H 2400 4325 50  0001 C CNN
	3    2700 4300
	1    0    0    1   
$EndComp
$Comp
L Amplifier_Operational:LM13700 U1
U 5 1 5D3BE6D9
P 2600 6400
F 0 "U1" H 2558 6446 50  0000 L CNN
F 1 "LM13700" H 2558 6355 50  0000 L CNN
F 2 "Package_SO:SOIC-16_3.9x9.9mm_P1.27mm" H 2300 6425 50  0001 C CNN
F 3 "http://www.ti.com/lit/ds/symlink/lm13700.pdf" H 2300 6425 50  0001 C CNN
	5    2600 6400
	1    0    0    -1  
$EndComp
$Comp
L Amplifier_Operational:TL082 U2
U 1 1 5D3C243A
P 4100 4400
F 0 "U2" H 4050 4350 50  0000 C CNN
F 1 "TL082" H 4050 4441 50  0000 C CNN
F 2 "Package_SO:SOIC-8_3.9x4.9mm_P1.27mm" H 4100 4400 50  0001 C CNN
F 3 "http://www.ti.com/lit/ds/symlink/tl081.pdf" H 4100 4400 50  0001 C CNN
	1    4100 4400
	1    0    0    1   
$EndComp
$Comp
L Amplifier_Operational:TL082 U2
U 2 1 5D3C347F
P 4100 2650
F 0 "U2" H 4050 2600 50  0000 C CNN
F 1 "TL082" H 4050 2691 50  0000 C CNN
F 2 "Package_SO:SOIC-8_3.9x4.9mm_P1.27mm" H 4100 2650 50  0001 C CNN
F 3 "http://www.ti.com/lit/ds/symlink/tl081.pdf" H 4100 2650 50  0001 C CNN
	2    4100 2650
	1    0    0    1   
$EndComp
$Comp
L Amplifier_Operational:TL082 U2
U 3 1 5D3C6808
P 3050 6400
F 0 "U2" H 3008 6446 50  0000 L CNN
F 1 "TL082" H 3008 6355 50  0000 L CNN
F 2 "Package_SO:SOIC-8_3.9x4.9mm_P1.27mm" H 3050 6400 50  0001 C CNN
F 3 "http://www.ti.com/lit/ds/symlink/tl081.pdf" H 3050 6400 50  0001 C CNN
	3    3050 6400
	1    0    0    -1  
$EndComp
$Comp
L Amplifier_Operational:TL082 U3
U 2 1 5D3CC22E
P 4100 4850
F 0 "U3" H 4050 4800 50  0000 C CNN
F 1 "TL082" H 4050 4891 50  0000 C CNN
F 2 "Package_SO:SOIC-8_3.9x4.9mm_P1.27mm" H 4100 4850 50  0001 C CNN
F 3 "http://www.ti.com/lit/ds/symlink/tl081.pdf" H 4100 4850 50  0001 C CNN
	2    4100 4850
	-1   0    0    1   
$EndComp
$Comp
L Amplifier_Operational:TL082 U3
U 3 1 5D3CF251
P 3450 6400
F 0 "U3" H 3408 6446 50  0000 L CNN
F 1 "TL082" H 3408 6355 50  0000 L CNN
F 2 "Package_SO:SOIC-8_3.9x4.9mm_P1.27mm" H 3450 6400 50  0001 C CNN
F 3 "http://www.ti.com/lit/ds/symlink/tl081.pdf" H 3450 6400 50  0001 C CNN
	3    3450 6400
	1    0    0    -1  
$EndComp
$Comp
L Transistor_BJT:BC857 Q1
U 1 1 5D3D0D34
P 3200 4850
F 0 "Q1" H 3391 4896 50  0000 L CNN
F 1 "BC857" H 3391 4805 50  0000 L CNN
F 2 "Package_TO_SOT_SMD:SOT-23" H 3400 4775 50  0001 L CIN
F 3 "http://www.fairchildsemi.com/ds/BC/BC856.pdf" H 3200 4850 50  0001 L CNN
	1    3200 4850
	-1   0    0    -1  
$EndComp
$Comp
L Device:R R1
U 1 1 5D3D3327
P 2050 2450
F 0 "R1" V 1950 2450 50  0000 C CNN
F 1 "820" V 2041 2450 50  0000 C CNN
F 2 "Resistor_SMD:R_0805_2012Metric_Pad1.15x1.40mm_HandSolder" V 1980 2450 50  0001 C CNN
F 3 "~" H 2050 2450 50  0001 C CNN
	1    2050 2450
	0    1    1    0   
$EndComp
$Comp
L Device:R R2
U 1 1 5D3D4912
P 2050 2650
F 0 "R2" V 1950 2650 50  0000 C CNN
F 1 "820" V 2041 2650 50  0000 C CNN
F 2 "Resistor_SMD:R_0805_2012Metric_Pad1.15x1.40mm_HandSolder" V 1980 2650 50  0001 C CNN
F 3 "~" H 2050 2650 50  0001 C CNN
	1    2050 2650
	0    1    1    0   
$EndComp
$Comp
L Device:R R3
U 1 1 5D3D4C8A
P 2050 4200
F 0 "R3" V 1950 4200 50  0000 C CNN
F 1 "820" V 2041 4200 50  0000 C CNN
F 2 "Resistor_SMD:R_0805_2012Metric_Pad1.15x1.40mm_HandSolder" V 1980 4200 50  0001 C CNN
F 3 "~" H 2050 4200 50  0001 C CNN
	1    2050 4200
	0    1    1    0   
$EndComp
$Comp
L Device:R R4
U 1 1 5D3D5D72
P 2050 4400
F 0 "R4" V 1950 4400 50  0000 C CNN
F 1 "820" V 2041 4400 50  0000 C CNN
F 2 "Resistor_SMD:R_0805_2012Metric_Pad1.15x1.40mm_HandSolder" V 1980 4400 50  0001 C CNN
F 3 "~" H 2050 4400 50  0001 C CNN
	1    2050 4400
	0    1    1    0   
$EndComp
$Comp
L power:GND #PWR01
U 1 1 5D3D6166
P 1800 2750
F 0 "#PWR01" H 1800 2500 50  0001 C CNN
F 1 "GND" H 1805 2577 50  0000 C CNN
F 2 "" H 1800 2750 50  0001 C CNN
F 3 "" H 1800 2750 50  0001 C CNN
	1    1800 2750
	1    0    0    -1  
$EndComp
Wire Wire Line
	1800 2750 1800 2650
Wire Wire Line
	1800 2450 1900 2450
Wire Wire Line
	2200 2450 2400 2450
Wire Wire Line
	1900 2650 1800 2650
Connection ~ 1800 2650
Wire Wire Line
	1800 2650 1800 2450
$Comp
L power:GND #PWR02
U 1 1 5D3D6B0B
P 1800 4500
F 0 "#PWR02" H 1800 4250 50  0001 C CNN
F 1 "GND" H 1805 4327 50  0000 C CNN
F 2 "" H 1800 4500 50  0001 C CNN
F 3 "" H 1800 4500 50  0001 C CNN
	1    1800 4500
	1    0    0    -1  
$EndComp
Wire Wire Line
	1800 4500 1800 4400
Wire Wire Line
	1800 4200 1900 4200
Wire Wire Line
	1900 4400 1800 4400
Connection ~ 1800 4400
Wire Wire Line
	1800 4400 1800 4200
Wire Wire Line
	2400 4400 2200 4400
Wire Wire Line
	2200 4200 2300 4200
$Comp
L Device:R R8
U 1 1 5D3D6FBA
P 3550 4850
F 0 "R8" V 3450 4850 50  0000 C CNN
F 1 "33k" V 3541 4850 50  0000 C CNN
F 2 "Resistor_SMD:R_0805_2012Metric_Pad1.15x1.40mm_HandSolder" V 3480 4850 50  0001 C CNN
F 3 "~" H 3550 4850 50  0001 C CNN
	1    3550 4850
	0    1    1    0   
$EndComp
$Comp
L Device:R R9
U 1 1 5D3E46F0
P 3550 5150
F 0 "R9" V 3450 5150 50  0000 C CNN
F 1 "100k" V 3541 5150 50  0000 C CNN
F 2 "Resistor_SMD:R_0805_2012Metric_Pad1.15x1.40mm_HandSolder" V 3480 5150 50  0001 C CNN
F 3 "~" H 3550 5150 50  0001 C CNN
	1    3550 5150
	0    1    1    0   
$EndComp
$Comp
L Device:R R7
U 1 1 5D3E4CDE
P 3100 5400
F 0 "R7" H 3170 5354 50  0000 L CNN
F 1 "10k" V 3100 5325 50  0000 L CNN
F 2 "Resistor_SMD:R_0805_2012Metric_Pad1.15x1.40mm_HandSolder" V 3030 5400 50  0001 C CNN
F 3 "~" H 3100 5400 50  0001 C CNN
	1    3100 5400
	-1   0    0    1   
$EndComp
$Comp
L power:GND #PWR012
U 1 1 5D3E5130
P 4400 4950
F 0 "#PWR012" H 4400 4700 50  0001 C CNN
F 1 "GND" V 4405 4822 50  0000 R CNN
F 2 "" H 4400 4950 50  0001 C CNN
F 3 "" H 4400 4950 50  0001 C CNN
	1    4400 4950
	0    -1   -1   0   
$EndComp
Wire Wire Line
	4400 4750 4700 4750
Wire Wire Line
	3400 5150 3100 5150
Wire Wire Line
	3100 5150 3100 5050
Wire Wire Line
	3100 5250 3100 5150
Connection ~ 3100 5150
Wire Wire Line
	3700 4850 3800 4850
$Comp
L power:GND #PWR07
U 1 1 5D3E5A46
P 3100 5550
F 0 "#PWR07" H 3100 5300 50  0001 C CNN
F 1 "GND" H 3105 5377 50  0000 C CNN
F 2 "" H 3100 5550 50  0001 C CNN
F 3 "" H 3100 5550 50  0001 C CNN
	1    3100 5550
	1    0    0    -1  
$EndComp
Wire Wire Line
	3000 4300 3700 4300
$Comp
L power:GND #PWR011
U 1 1 5D3E6968
P 3800 4500
F 0 "#PWR011" H 3800 4250 50  0001 C CNN
F 1 "GND" V 3805 4372 50  0000 R CNN
F 2 "" H 3800 4500 50  0001 C CNN
F 3 "" H 3800 4500 50  0001 C CNN
	1    3800 4500
	0    1    1    0   
$EndComp
Wire Wire Line
	3700 4300 3700 4000
Wire Wire Line
	3700 4000 4500 4000
Connection ~ 3700 4300
Wire Wire Line
	3700 4300 3800 4300
$Comp
L Device:R R6
U 1 1 5D3E74D9
P 2300 3950
F 0 "R6" H 2369 3904 50  0000 L CNN
F 1 "100k" V 2300 3850 50  0000 L CNN
F 2 "Resistor_SMD:R_0805_2012Metric_Pad1.15x1.40mm_HandSolder" V 2230 3950 50  0001 C CNN
F 3 "~" H 2300 3950 50  0001 C CNN
	1    2300 3950
	-1   0    0    1   
$EndComp
$Comp
L Device:R R5
U 1 1 5D3E8747
P 2300 2900
F 0 "R5" H 2369 2854 50  0000 L CNN
F 1 "100k" V 2300 2800 50  0000 L CNN
F 2 "Resistor_SMD:R_0805_2012Metric_Pad1.15x1.40mm_HandSolder" V 2230 2900 50  0001 C CNN
F 3 "~" H 2300 2900 50  0001 C CNN
	1    2300 2900
	-1   0    0    1   
$EndComp
Wire Wire Line
	2300 4100 2300 4200
Connection ~ 2300 4200
Wire Wire Line
	2300 4200 2400 4200
Wire Wire Line
	2300 3800 2300 3350
Wire Wire Line
	2300 3350 2550 3100
Wire Wire Line
	2300 3050 2300 3150
Wire Wire Line
	2300 3150 2550 3400
Wire Wire Line
	2300 2750 2300 2650
Wire Wire Line
	2200 2650 2300 2650
Connection ~ 2300 2650
Wire Wire Line
	2300 2650 2400 2650
$Comp
L Device:R R14
U 1 1 5D3F18A0
P 5300 3850
F 0 "R14" H 5369 3804 50  0000 L CNN
F 1 "100k" V 5300 3750 50  0000 L CNN
F 2 "Resistor_SMD:R_0805_2012Metric_Pad1.15x1.40mm_HandSolder" V 5230 3850 50  0001 C CNN
F 3 "~" H 5300 3850 50  0001 C CNN
	1    5300 3850
	-1   0    0    1   
$EndComp
$Comp
L Device:R R13
U 1 1 5D3F25D8
P 5300 3550
F 0 "R13" H 5369 3504 50  0000 L CNN
F 1 "100k" V 5300 3450 50  0000 L CNN
F 2 "Resistor_SMD:R_0805_2012Metric_Pad1.15x1.40mm_HandSolder" V 5230 3550 50  0001 C CNN
F 3 "~" H 5300 3550 50  0001 C CNN
	1    5300 3550
	-1   0    0    1   
$EndComp
$Comp
L Reference_Voltage:TL431DBZ U4
U 1 1 5D3F1181
P 5100 3700
F 0 "U4" V 5054 3630 50  0000 R CNN
F 1 "AN431" V 5145 3630 50  0000 R CNN
F 2 "Package_TO_SOT_SMD:SOT-23" H 5100 3550 50  0001 C CIN
F 3 "http://www.ti.com/lit/ds/symlink/tl431.pdf" H 5100 3700 50  0001 C CIN
	1    5100 3700
	0    1    1    0   
$EndComp
Wire Wire Line
	4600 4400 4600 4000
Wire Wire Line
	4400 4400 4600 4400
$Comp
L Diode:LL4148 D4
U 1 1 5D3F765E
P 5550 4000
F 0 "D4" H 5550 4100 50  0000 C CNN
F 1 "LL4148" H 5550 4300 50  0000 C CNN
F 2 "Diode_SMD:D_MiniMELF" H 5550 3825 50  0001 C CNN
F 3 "http://www.vishay.com/docs/85557/ll4148.pdf" H 5550 4000 50  0001 C CNN
	1    5550 4000
	1    0    0    -1  
$EndComp
$Comp
L Diode:LL4148 D2
U 1 1 5D3F83C5
P 4850 4000
F 0 "D2" H 4850 4100 50  0000 C CNN
F 1 "LL4148" H 4850 4125 50  0001 C CNN
F 2 "Diode_SMD:D_MiniMELF" H 4850 3825 50  0001 C CNN
F 3 "http://www.vishay.com/docs/85557/ll4148.pdf" H 4850 4000 50  0001 C CNN
	1    4850 4000
	-1   0    0    -1  
$EndComp
Wire Wire Line
	4700 4000 4600 4000
Wire Wire Line
	5300 3700 5200 3700
Connection ~ 5300 3700
Wire Wire Line
	5400 4000 5300 4000
Connection ~ 5300 4000
Wire Wire Line
	5300 4000 5100 4000
Wire Wire Line
	5700 4000 5800 4000
Wire Wire Line
	5000 2650 5100 2650
$Comp
L Device:R R16
U 1 1 5D3EA3A1
P 5800 2400
F 0 "R16" H 5650 2350 50  0000 L CNN
F 1 "68k" V 5800 2350 50  0000 L CNN
F 2 "Resistor_SMD:R_0805_2012Metric_Pad1.15x1.40mm_HandSolder" V 5730 2400 50  0001 C CNN
F 3 "~" H 5800 2400 50  0001 C CNN
	1    5800 2400
	-1   0    0    1   
$EndComp
Wire Wire Line
	5800 2650 5900 2650
Wire Wire Line
	6600 2750 6600 2150
Wire Wire Line
	6600 2150 5800 2150
Wire Wire Line
	5800 2150 4600 2150
Wire Wire Line
	6500 2750 6600 2750
Wire Wire Line
	5800 2250 5800 2150
Connection ~ 4500 2650
Wire Wire Line
	4500 2650 4700 2650
$Comp
L Amplifier_Operational:TL082 U3
U 1 1 5D3CA185
P 6200 2750
F 0 "U3" H 6150 2700 50  0000 C CNN
F 1 "TL082" H 6150 2791 50  0000 C CNN
F 2 "Package_SO:SOIC-8_3.9x4.9mm_P1.27mm" H 6200 2750 50  0001 C CNN
F 3 "http://www.ti.com/lit/ds/symlink/tl081.pdf" H 6200 2750 50  0001 C CNN
	1    6200 2750
	1    0    0    1   
$EndComp
Connection ~ 5800 2650
$Comp
L Device:R R10
U 1 1 5D3E8FB3
P 4850 2650
F 0 "R10" V 4750 2650 50  0000 C CNN
F 1 "68k" V 4841 2650 50  0000 C CNN
F 2 "Resistor_SMD:R_1206_3216Metric_Pad1.42x1.75mm_HandSolder" V 4780 2650 50  0001 C CNN
F 3 "~" H 4850 2650 50  0001 C CNN
	1    4850 2650
	0    1    1    0   
$EndComp
Connection ~ 5800 2150
Wire Wire Line
	4400 2650 4500 2650
Wire Wire Line
	5800 2550 5800 2650
Wire Wire Line
	5100 3800 5100 4000
Connection ~ 5100 4000
Wire Wire Line
	5100 4000 5000 4000
$Comp
L Device:R R15
U 1 1 5D3FAE6D
P 5550 2850
F 0 "R15" V 5650 2850 50  0000 L CNN
F 1 "2k2" V 5550 2750 50  0000 L CNN
F 2 "Resistor_SMD:R_0805_2012Metric_Pad1.15x1.40mm_HandSolder" V 5480 2850 50  0001 C CNN
F 3 "~" H 5550 2850 50  0001 C CNN
	1    5550 2850
	0    -1   -1   0   
$EndComp
$Comp
L Device:R R18
U 1 1 5D3FB768
P 6050 4000
F 0 "R18" V 6150 4000 50  0000 L CNN
F 1 "2k2" V 6050 3900 50  0000 L CNN
F 2 "Resistor_SMD:R_0805_2012Metric_Pad1.15x1.40mm_HandSolder" V 5980 4000 50  0001 C CNN
F 3 "~" H 6050 4000 50  0001 C CNN
	1    6050 4000
	0    -1   -1   0   
$EndComp
$Comp
L power:GND #PWR014
U 1 1 5D3FC78D
P 6200 4000
F 0 "#PWR014" H 6200 3750 50  0001 C CNN
F 1 "GND" V 6205 3872 50  0000 R CNN
F 2 "" H 6200 4000 50  0001 C CNN
F 3 "" H 6200 4000 50  0001 C CNN
	1    6200 4000
	0    -1   -1   0   
$EndComp
$Comp
L power:GND #PWR013
U 1 1 5D3FC97A
P 5400 2850
F 0 "#PWR013" H 5400 2600 50  0001 C CNN
F 1 "GND" V 5405 2722 50  0000 R CNN
F 2 "" H 5400 2850 50  0001 C CNN
F 3 "" H 5400 2850 50  0001 C CNN
	1    5400 2850
	0    1    1    0   
$EndComp
Wire Wire Line
	5700 2850 5800 2850
Connection ~ 5100 3400
Wire Wire Line
	5800 4000 5800 3400
Connection ~ 5300 3400
Connection ~ 5800 3400
Wire Wire Line
	5700 3400 5800 3400
$Comp
L Diode:LL4148 D3
U 1 1 5D3F7B20
P 5550 3400
F 0 "D3" H 5550 3300 50  0000 C CNN
F 1 "LL4148" H 5550 3525 50  0001 C CNN
F 2 "Diode_SMD:D_MiniMELF" H 5550 3225 50  0001 C CNN
F 3 "http://www.vishay.com/docs/85557/ll4148.pdf" H 5550 3400 50  0001 C CNN
	1    5550 3400
	-1   0    0    -1  
$EndComp
Wire Wire Line
	5100 3400 5300 3400
Wire Wire Line
	5000 3400 5100 3400
$Comp
L Diode:LL4148 D1
U 1 1 5D3F3D7C
P 4850 3400
F 0 "D1" H 4850 3300 50  0000 C CNN
F 1 "LL4148" H 4850 3525 50  0001 C CNN
F 2 "Diode_SMD:D_MiniMELF" H 4850 3225 50  0001 C CNN
F 3 "http://www.vishay.com/docs/85557/ll4148.pdf" H 4850 3400 50  0001 C CNN
	1    4850 3400
	1    0    0    -1  
$EndComp
Wire Wire Line
	5100 3600 5100 3400
Wire Wire Line
	5300 3400 5400 3400
Wire Wire Line
	5800 3400 5800 3250
Wire Wire Line
	2550 3400 2650 3400
Wire Wire Line
	4600 4000 4600 3400
Connection ~ 4600 4000
Connection ~ 4600 3400
Wire Wire Line
	4600 3400 4700 3400
Wire Wire Line
	4600 2150 4600 3100
Wire Wire Line
	2550 3100 4600 3100
Wire Wire Line
	5800 2950 5800 2850
Connection ~ 5800 2850
Wire Wire Line
	5800 2850 5900 2850
Wire Wire Line
	5900 4000 5800 4000
Connection ~ 5800 4000
Wire Wire Line
	4500 2650 4500 2050
$Comp
L Device:R R11
U 1 1 5D3FE1FA
P 5100 2800
F 0 "R11" H 5150 2850 50  0000 L CNN
F 1 "1M" V 5100 2700 50  0000 L CNN
F 2 "Resistor_SMD:R_0805_2012Metric_Pad1.15x1.40mm_HandSolder" V 5030 2800 50  0001 C CNN
F 3 "~" H 5100 2800 50  0001 C CNN
	1    5100 2800
	1    0    0    -1  
$EndComp
Connection ~ 5100 2650
Wire Wire Line
	5100 2650 5800 2650
$Comp
L Device:R R12
U 1 1 5D401543
P 5100 3100
F 0 "R12" H 5150 3150 50  0000 L CNN
F 1 "1M" V 5100 3000 50  0000 L CNN
F 2 "Resistor_SMD:R_0805_2012Metric_Pad1.15x1.40mm_HandSolder" V 5030 3100 50  0001 C CNN
F 3 "~" H 5100 3100 50  0001 C CNN
	1    5100 3100
	1    0    0    -1  
$EndComp
Wire Wire Line
	5100 3250 4600 3250
Wire Wire Line
	4600 3250 4600 3400
$Comp
L Device:R R17
U 1 1 5D3FA994
P 5800 3100
F 0 "R17" H 5650 3050 50  0000 L CNN
F 1 "33k" V 5800 3000 50  0000 L CNN
F 2 "Resistor_SMD:R_0805_2012Metric_Pad1.15x1.40mm_HandSolder" V 5730 3100 50  0001 C CNN
F 3 "~" H 5800 3100 50  0001 C CNN
	1    5800 3100
	-1   0    0    1   
$EndComp
$Comp
L power:GND #PWR010
U 1 1 5D404BF7
P 3800 2750
F 0 "#PWR010" H 3800 2500 50  0001 C CNN
F 1 "GND" V 3805 2622 50  0000 R CNN
F 2 "" H 3800 2750 50  0001 C CNN
F 3 "" H 3800 2750 50  0001 C CNN
	1    3800 2750
	0    1    1    0   
$EndComp
$Comp
L power:+15V #PWR08
U 1 1 5D40AFDD
P 3350 6100
F 0 "#PWR08" H 3350 5950 50  0001 C CNN
F 1 "+15V" H 3365 6273 50  0000 C CNN
F 2 "" H 3350 6100 50  0001 C CNN
F 3 "" H 3350 6100 50  0001 C CNN
	1    3350 6100
	1    0    0    -1  
$EndComp
$Comp
L power:-15V #PWR09
U 1 1 5D40B99E
P 3350 6700
F 0 "#PWR09" H 3350 6800 50  0001 C CNN
F 1 "-15V" H 3365 6873 50  0000 C CNN
F 2 "" H 3350 6700 50  0001 C CNN
F 3 "" H 3350 6700 50  0001 C CNN
	1    3350 6700
	-1   0    0    1   
$EndComp
$Comp
L power:-15V #PWR06
U 1 1 5D40C289
P 2950 6700
F 0 "#PWR06" H 2950 6800 50  0001 C CNN
F 1 "-15V" H 2965 6873 50  0000 C CNN
F 2 "" H 2950 6700 50  0001 C CNN
F 3 "" H 2950 6700 50  0001 C CNN
	1    2950 6700
	-1   0    0    1   
$EndComp
$Comp
L power:-15V #PWR04
U 1 1 5D40C61C
P 2500 6700
F 0 "#PWR04" H 2500 6800 50  0001 C CNN
F 1 "-15V" H 2515 6873 50  0000 C CNN
F 2 "" H 2500 6700 50  0001 C CNN
F 3 "" H 2500 6700 50  0001 C CNN
	1    2500 6700
	-1   0    0    1   
$EndComp
$Comp
L power:+15V #PWR03
U 1 1 5D40CB57
P 2500 5450
F 0 "#PWR03" H 2500 5300 50  0001 C CNN
F 1 "+15V" H 2515 5623 50  0000 C CNN
F 2 "" H 2500 5450 50  0001 C CNN
F 3 "" H 2500 5450 50  0001 C CNN
	1    2500 5450
	1    0    0    -1  
$EndComp
Wire Wire Line
	6700 5050 6700 4950
Wire Wire Line
	6700 5350 6800 5350
Wire Wire Line
	6800 5050 6700 5050
Connection ~ 4700 5150
Wire Wire Line
	4700 5150 6800 5150
$Comp
L power:+15V #PWR015
U 1 1 5D40A6CE
P 6700 4950
F 0 "#PWR015" H 6700 4800 50  0001 C CNN
F 1 "+15V" H 6715 5123 50  0000 C CNN
F 2 "" H 6700 4950 50  0001 C CNN
F 3 "" H 6700 4950 50  0001 C CNN
	1    6700 4950
	1    0    0    -1  
$EndComp
Wire Wire Line
	4700 4750 4700 5150
$Comp
L power:GND #PWR017
U 1 1 5D408778
P 6800 5250
F 0 "#PWR017" H 6800 5000 50  0001 C CNN
F 1 "GND" V 6805 5122 50  0000 R CNN
F 2 "" H 6800 5250 50  0001 C CNN
F 3 "" H 6800 5250 50  0001 C CNN
	1    6800 5250
	0    1    1    0   
$EndComp
$Comp
L Connector:Conn_01x04_Male J2
U 1 1 5D40548A
P 7000 5150
F 0 "J2" H 7175 5375 50  0000 R CNN
F 1 "Conn_01x04_Male" H 6972 5123 50  0001 R CNN
F 2 "Connector_Harwin:Harwin_M20-89004xx_1x04_P2.54mm_Horizontal" H 7000 5150 50  0001 C CNN
F 3 "~" H 7000 5150 50  0001 C CNN
	1    7000 5150
	-1   0    0    -1  
$EndComp
Wire Wire Line
	6700 5450 6700 5350
$Comp
L power:-15V #PWR016
U 1 1 5D40AE76
P 6700 5450
F 0 "#PWR016" H 6700 5550 50  0001 C CNN
F 1 "-15V" H 6715 5623 50  0000 C CNN
F 2 "" H 6700 5450 50  0001 C CNN
F 3 "" H 6700 5450 50  0001 C CNN
	1    6700 5450
	-1   0    0    1   
$EndComp
Wire Wire Line
	4700 5150 3700 5150
Text GLabel 6300 4350 0    50   Input ~ 0
sin
Text GLabel 6400 4450 0    50   Input ~ 0
sin_c
Text GLabel 6300 4550 0    50   Input ~ 0
cos
Text GLabel 6400 4650 0    50   Input ~ 0
cos_c
Wire Wire Line
	6800 4550 6300 4550
Text GLabel 4600 2050 2    50   Input ~ 0
cos
Wire Wire Line
	4600 2050 4500 2050
Connection ~ 3700 2550
Wire Wire Line
	3800 2550 3700 2550
Wire Wire Line
	3700 2550 3000 2550
Text GLabel 4600 1950 2    50   Input ~ 0
cos_c
Wire Wire Line
	3700 1950 4600 1950
Wire Wire Line
	3700 2550 3700 1950
Text GLabel 4700 4400 2    50   Input ~ 0
sin
Text GLabel 4700 4500 2    50   Input ~ 0
sin_c
Wire Wire Line
	4700 4500 4500 4500
Wire Wire Line
	4500 4500 4500 4000
Wire Wire Line
	4600 4400 4700 4400
Connection ~ 4600 4400
$Comp
L Connector:Conn_01x04_Male J1
U 1 1 5D40F849
P 7000 4450
F 0 "J1" H 7175 4675 50  0000 R CNN
F 1 "Conn_01x04_Male" H 6972 4423 50  0001 R CNN
F 2 "Connector_Harwin:Harwin_M20-89004xx_1x04_P2.54mm_Horizontal" H 7000 4450 50  0001 C CNN
F 3 "~" H 7000 4450 50  0001 C CNN
	1    7000 4450
	-1   0    0    -1  
$EndComp
$Comp
L Device:R R19
U 1 1 5D4AFDB7
P 3150 4200
F 0 "R19" H 3220 4154 50  0000 L CNN
F 1 "0R" V 3150 4125 50  0000 L CNN
F 2 "Resistor_SMD:R_1806_4516Metric_Pad1.57x1.80mm_HandSolder" V 3080 4200 50  0001 C CNN
F 3 "~" H 3150 4200 50  0001 C CNN
	1    3150 4200
	0    -1   -1   0   
$EndComp
Wire Wire Line
	3000 2650 3375 2650
Wire Wire Line
	3300 4200 3375 4200
Wire Wire Line
	3375 4200 3375 2650
Wire Wire Line
	3100 4550 3100 4650
Wire Wire Line
	3100 4550 3375 4550
Wire Wire Line
	3375 4550 3375 4200
Connection ~ 3375 4200
$Comp
L Device:R R20
U 1 1 5D4D80B3
P 6450 4350
F 0 "R20" H 6520 4304 50  0000 L CNN
F 1 "0R" V 6450 4275 50  0000 L CNN
F 2 "Resistor_SMD:R_0805_2012Metric_Pad1.15x1.40mm_HandSolder" V 6380 4350 50  0001 C CNN
F 3 "~" H 6450 4350 50  0001 C CNN
	1    6450 4350
	0    -1   -1   0   
$EndComp
Wire Wire Line
	6400 4450 6800 4450
Wire Wire Line
	6800 4650 6400 4650
$Comp
L Device:R R21
U 1 1 5D416A28
P 2800 3400
F 0 "R21" H 2870 3354 50  0000 L CNN
F 1 "0R" V 2800 3325 50  0000 L CNN
F 2 "Resistor_SMD:R_1806_4516Metric_Pad1.57x1.80mm_HandSolder" V 2730 3400 50  0001 C CNN
F 3 "~" H 2800 3400 50  0001 C CNN
	1    2800 3400
	0    -1   -1   0   
$EndComp
Wire Wire Line
	2950 3400 4300 3400
Wire Wire Line
	6600 4350 6700 4350
Wire Wire Line
	6700 4350 6700 4150
Wire Wire Line
	6700 4150 4300 4150
Wire Wire Line
	4300 4150 4300 3400
Connection ~ 6700 4350
Wire Wire Line
	6700 4350 6800 4350
Wire Wire Line
	2500 6100 2500 6000
Wire Wire Line
	2500 6000 2950 6000
Wire Wire Line
	2950 6000 2950 6100
Connection ~ 2500 6000
Wire Wire Line
	2500 6000 2500 5850
$Comp
L Device:R R?
U 1 1 5D4D6EAA
P 2500 5700
F 0 "R?" V 2400 5700 50  0000 C CNN
F 1 "0R" V 2491 5700 50  0000 C CNN
F 2 "Resistor_SMD:R_1206_3216Metric_Pad1.42x1.75mm_HandSolder" V 2430 5700 50  0001 C CNN
F 3 "~" H 2500 5700 50  0001 C CNN
	1    2500 5700
	1    0    0    -1  
$EndComp
Wire Wire Line
	2500 5550 2500 5450
$EndSCHEMATC
